{
  "project_info": {
    "project_number": "469890717373",
    "firebase_url": "https://wklny-48e46.firebaseio.com",
    "project_id": "wklny-48e46",
    "storage_bucket": "wklny-48e46.appspot.com"
  },
  "client": [
    {
      "client_info": {
        "mobilesdk_app_id": "1:469890717373:android:e7b57dc4de470ed5b6c9d4",
        "android_client_info": {
          "package_name": "com.wklny"
        }
      },
      "oauth_client": [
        {
          "client_id": "469890717373-nod73e4bh2b5v2qur268roqt8f1ivkg7.apps.googleusercontent.com",
          "client_type": 3
        }
      ],
      "api_key": [
        {
          "current_key": "AIzaSyCI8-Uz0hrONxC2NFWGe9oyvFDqZMnQkKw"
        }
      ],
      "services": {
        "appinvite_service": {
          "other_platform_oauth_client": [
            {
              "client_id": "469890717373-nod73e4bh2b5v2qur268roqt8f1ivkg7.apps.googleusercontent.com",
              "client_type": 3
            }
          ]
        }
      }
    }
  ],
  "configuration_version": "1"
}